Exploratory Data Analysis
…
$`Numeric Variables`
       Variable   N   Mean    SD Min    Q1 Median     Q3   Max Missing Distinct Zeros
1            id 303 152.00 87.61   1  76.5  152.0 227.50 303.0       0      303     0
2           age 281  54.22  9.19  29  47.0   55.0  61.00  77.0      22       42     0
3    resting_bp 291 131.65 17.80  94 120.0  130.0 140.00 200.0      12       50     0
4   cholesterol 292 246.65 52.19 126 211.0  241.5 275.00 564.0      11      150     0
5   resting_ecg 290   0.52  0.51   0   0.0    1.0   1.00   2.0      13        4   142
6 max_heartrate 286 150.29 22.70  71 136.0  154.0 166.75 202.0      17       91     0
7      old_peak 292   1.04  1.15   0   0.0    0.8   1.60   6.2      11       40    95
8     n_vessels 286   0.74  1.03   0   0.0    0.0   1.00   4.0      17        6   165
9 heart_disease 286   0.55  0.50   0   0.0    1.0   1.00   1.0      17        3   128

$`Categorical Variables`
# A tibble: 22 x 4
   Variable            Group            Frequency   `%`
   <chr>               <fct>                <int> <dbl>
 1 sex                 male                   197   65 
 2 sex                 female                  91   30 
 3 sex                 <NA>                    15    5 
 4 chest_pain_type     typical angina         136   45 
 5 chest_pain_type     non-anginal pain        81   27 
 6 chest_pain_type     atypical angina         47   16 
 7 chest_pain_type     asymptomatic            23    8 
 8 chest_pain_type     <NA>                    16    5 
 9 fasting_blood_sugar lt_120                 247   82 
10 fasting_blood_sugar gt_120                  43   14.
# … with 12 more rows
…
